{
    "apiVersion": 2,
    "name": "jg/signin",
    "category": "common",
    "icon": "",
    "title": "Sign in form",
    "description": "",
    "keywords": [ "jensen", "wa", "virtualgames" ],
    "attributes": {
        "backgroundColor": {
            "type": "string",
            "default": "white"
        },
        "textColor": {
            "type": "string",
            "default": "black"
        },
        "bg": {
            "type": "object",
            "default": false
        },
        "primaryLogo": {
            "type": "object",
            "default": false
        },
        "secondaryLogo": {
            "type": "object",
            "default": false
        }
    },
    "supports": {
        "align": [ "center", "full" ]
    }
}