{
    "apiVersion": 2,
    "name": "jg/guestbook",
    "category": "common",
    "icon": "universal-access",
    "title": "Guestbook",
    "description": "Show guestbook entries",
    "keywords": [ "jensen", "wa", "virtualgames" ],
    "attributes": {
        "backgroundColor": {
            "type": "string",
            "default": "white"
        },
        "textColor": {
            "type": "string",
            "default": "black"
        },
        "nfComment": {
            "type": "string", 
            "default": false
        }
    },
    "supports": {
        "align": [ "center", "full" ]
    }
}