<svg viewBox="0 0 18 18" version="1.1" xmlns="http://www.w3.org/2000/svg" >
    <path d="M16,0 L2,0 C0.9,0 0,0.9 0,2 L0,16 C0,17.1 0.9,18 2,18 L16,18 C17.1,18 18,17.1 18,16 L18,2 C18,0.9 17.1,0 16,0 Z M16.5,16 C16.5,16.3 16.3,16.5 16,16.5 L2,16.5 C1.7,16.5 1.5,16.3 1.5,16 L1.5,4 L16.5,4 L16.5,16 Z"></path>
    <path d="M5.4670641,6.51737308 C5.50560826,6.51737308 5.53685448,6.48612667 5.53685448,6.4475825 C5.53775201,6.28903484 5.65865421,6.15696808 5.81650636,6.14210654 C5.8548768,6.1386481 5.88322848,6.10481606 5.87992245,6.06643219 C5.87604426,6.02832882 5.84261873,6.00018482 5.80441154,6.00285266 C5.57458335,6.02450586 5.39852687,6.21674089 5.39711026,6.4475825 C5.39711026,6.46612041 5.40448554,6.48389669 5.41760915,6.49698963 C5.43073276,6.51008258 5.44852623,6.5174163 5.4670641,6.51737308 L5.4670641,6.51737308 Z"></path>
    <path d="M5.83023562,7.22475648 C6.26661441,7.22448572 6.62017516,6.87055917 6.61999475,6.43418033 C6.6198142,5.99780149 6.26596081,5.64416753 5.82958194,5.64425771 C5.39320307,5.64434792 5.03949582,5.99812814 5.03949582,6.43450702 C5.03985662,6.87099167 5.39375083,7.22466643 5.83023562,7.22475648 L5.83023562,7.22475648 Z M5.24429057,6.31535668 C5.30683112,6.00712845 5.59758888,5.8001378 5.90930897,5.84192963 C6.22102905,5.88372147 6.44699716,6.15998875 6.42614109,6.47380557 C6.40528503,6.78762238 6.14474466,7.03155663 5.83023562,7.03173425 C5.65065415,7.03243258 5.48033192,6.95211272 5.36663401,6.81310632 C5.2529361,6.67409992 5.20798844,6.49123207 5.24429057,6.31535668 L5.24429057,6.31535668 Z"></path>
    <path d="M6.55494422,7.44507836 C6.35178392,7.45390431 6.16169909,7.67586062 6.24603595,7.88735654 C6.35423557,8.15916313 6.06739218,8.28158234 5.86406843,8.10489988 C5.66074468,7.92821743 4.35728253,6.7190622 4.35728253,6.7190622 C4.35728253,6.7190622 4.26902303,6.63521567 4.13598,6.50740283 C4.02810727,6.40525063 3.75548346,6.14488508 3.63224704,6.0281864 C3.51113539,5.91377593 3.24161701,5.66011158 3.14028202,5.56613155 C3.0891242,5.51971359 2.89511673,5.34237736 2.86635067,5.31933182 C2.62265636,5.11519085 2.35183044,5.4007267 2.59568818,5.67253329 C2.62837689,5.70963497 2.85490962,5.94907974 2.96458023,6.06479775 C3.06101191,6.16678652 3.32023334,6.43826622 3.44232566,6.56575217 C3.55166938,6.68016264 3.81514035,6.95360366 3.93445413,7.0776573 C4.7634397,7.93769715 5.08068359,8.24611509 5.38583266,8.52445942 C6.03372281,9.11547122 6.64434783,8.84219364 6.86565037,8.38978195 C7.05769652,7.99735404 6.87937963,7.43151254 6.55494422,7.44507836 Z"></path>
    <path d="M10.2674181,9.18182982 C10.1571551,9.18194715 10.0513647,9.1382429 9.97333466,9.0603375 C9.89530461,8.98243209 9.85143129,8.87671171 9.85137257,8.76644867 L9.85137257,5.69484527 C9.84789189,5.54411718 9.92631408,5.40332493 10.0562992,5.32693816 C10.1862843,5.25055139 10.3474442,5.25055139 10.4774293,5.32693816 C10.6074144,5.40332493 10.6858366,5.54411718 10.6823559,5.69484527 L10.6823559,8.76644867 C10.6822341,8.99563378 10.4966029,9.18146311 10.2674181,9.18182982 Z M12.5713976,6.86256409 L10.8733204,6.86256409 L10.8733204,7.59828677 L12.5716191,7.59828677 L12.5713976,6.86256409 Z M13.5929023,8.76644867 L13.5929023,5.69484527 C13.5929023,5.46531437 13.4068308,5.27924282 13.1772999,5.27924282 C12.947769,5.27924282 12.7616974,5.46531437 12.7616974,5.69484527 L12.7616974,8.76644867 C12.7616974,8.99597956 12.947769,9.18205112 13.1772999,9.18205112 C13.4068308,9.18205112 13.5929023,8.99597956 13.5929023,8.76644867 Z M9.31702657,5.90464032 C9.14031557,5.90476261 8.99712784,6.04804951 8.99712788,6.22476055 L8.99712788,6.86256409 L8.88635963,6.86256409 C8.68313425,6.86256409 8.51838753,7.02731082 8.51838753,7.2305362 C8.51838753,7.43376158 8.68313425,7.59850831 8.88635963,7.59850831 L8.99712788,7.59850831 L8.99712788,8.23609032 C8.99406667,8.35242618 9.05438176,8.46125929 9.15465232,8.5203289 C9.25492288,8.57939852 9.37935179,8.57939852 9.47962235,8.5203289 C9.57989291,8.46125929 9.640208,8.35242618 9.63714679,8.23609032 L9.63714679,6.22476055 C9.63714679,6.04796303 9.49382408,5.90464032 9.31702657,5.90464032 Z M14.5798474,6.86256409 L14.4416086,6.86256409 L14.4416086,6.22476055 C14.4446698,6.10842468 14.3843547,5.99959157 14.2840842,5.94052196 C14.1838136,5.88145235 14.0593847,5.88145235 13.9591141,5.94052196 C13.8588436,5.99959157 13.7985285,6.10842468 13.8015897,6.22476055 L13.8015897,8.23609032 C13.7985285,8.35242618 13.8588436,8.46125929 13.9591141,8.5203289 C14.0593847,8.57939852 14.1838136,8.57939852 14.2840842,8.5203289 C14.3843547,8.46125929 14.4446698,8.35242618 14.4416086,8.23609032 L14.4416086,7.59828677 L14.5798474,7.59828677 C14.7830727,7.59828677 14.9478195,7.43354005 14.9478195,7.23031466 C14.9478195,7.02708928 14.7830727,6.86234256 14.5798474,6.86234256 L14.5798474,6.86256409 Z"></path>
    <path d="M8.72394881,10.2623647 C9.68591522,10.1939626 10.5942353,10.7122425 11.0247768,11.575198 C11.4562965,12.4374553 11.3255683,13.4746589 10.6937698,14.2029203 C10.0619713,14.9311817 9.05360159,15.206993 8.13909753,14.9016795 C6.89251576,14.4859636 6.21707177,13.1337553 6.63203317,11.8875508 C6.93613667,10.9723572 7.7619824,10.3307668 8.72394881,10.2623647 Z M8.97713093,10.6292747 C9.10746654,10.9061671 9.21328169,11.3969533 9.23629319,11.8136122 C9.10161935,11.8041813 8.96939756,11.8017292 8.84019367,11.8055016 C8.83095135,11.579159 8.75569244,11.3850703 8.61573728,11.2396452 C8.43994454,11.0570622 8.17380339,10.9553966 7.82466996,10.9321965 C7.7028222,11.0089644 7.58946229,11.1096868 7.48515608,11.1998466 C7.9523649,11.1745717 8.25528672,11.2507737 8.42391194,11.4246802 C8.5197303,11.5248368 8.56971429,11.6576245 8.57480699,11.8207797 C7.89087516,11.8817036 7.30936335,12.0938998 6.9149614,12.2793121 C6.89473528,12.3832606 6.88281466,12.4886541 6.87931244,12.5944941 C7.23938577,12.4094591 7.83542123,12.1618026 8.55594511,12.090316 C8.53029295,12.346649 8.456543,12.5497915 8.07119475,12.9174095 C7.68584651,13.2850276 7.4602584,13.5085409 7.31954876,13.8938892 C7.38293463,13.9737287 7.45229445,14.0486373 7.52702946,14.1179683 C7.64227556,13.7028183 7.72979469,13.6507595 8.25622981,13.110178 C8.78266493,12.5695964 8.79360482,12.4158721 8.82717897,12.0740948 C8.96505251,12.0696019 9.10306775,12.0724982 9.24063142,12.0827713 C9.22761672,12.9096762 9.11840643,13.5311752 8.78473974,14.651571 C8.87788357,14.6591239 8.97152837,14.6579873 9.06446145,14.6481758 C9.38115244,13.5709738 9.4930034,12.923634 9.50771567,12.1088007 C9.64484155,12.125965 9.76951859,12.1463358 9.8849533,12.1708563 C9.94248204,12.5160287 10.0709315,12.7778316 10.2065484,13.0526492 C10.32104,13.2850276 10.4389268,13.5260825 10.5175808,13.8335311 C10.5885738,13.7358091 10.6507479,13.6319752 10.7033704,13.5232532 C10.6271683,13.3027578 10.5358768,13.1160252 10.4462829,12.9341966 C10.336884,12.7123809 10.232955,12.4996189 10.1729742,12.2461152 C10.4696716,12.3391043 10.6911101,12.4718919 10.9085876,12.6201463 C10.9085876,12.6201463 10.8963274,12.3945582 10.8759566,12.2827072 C10.6444723,12.1352126 10.3917417,12.0240824 10.126574,11.9531902 C10.1095983,11.6695075 10.2025874,11.5150286 10.4649562,11.3829955 C10.4075667,11.3114449 10.3452998,11.2439471 10.2786008,11.1809847 C9.9902026,11.3448945 9.85703772,11.5655785 9.85703772,11.891889 C9.7476388,11.8713296 9.63107237,11.853788 9.505075,11.8385099 C9.48809931,11.4444852 9.39944847,10.9887821 9.28061861,10.6654895 C9.18052529,10.6457108 9.0790678,10.633604 8.97713093,10.6292747 Z"></path>
</svg>